{
  "id": "2859148",
  "name": "能耗监控平台",
  "font_family": "iconfont",
  "css_prefix_text": "icon-",
  "description": "",
  "glyphs": [
    {
      "icon_id": "25846171",
      "name": "icon_2能源计划",
      "font_class": "icon_2nengyuanjihua",
      "unicode": "e791",
      "unicode_decimal": 59281
    },
    {
      "icon_id": "25800568",
      "name": "close-line",
      "font_class": "close-line",
      "unicode": "e78d",
      "unicode_decimal": 59277
    },
    {
      "icon_id": "25364919",
      "name": "add-line",
      "font_class": "add-line",
      "unicode": "e77d",
      "unicode_decimal": 59261
    },
    {
      "icon_id": "25301421",
      "name": "预警 (1)",
      "font_class": "a-yujing1",
      "unicode": "e77c",
      "unicode_decimal": 59260
    },
    {
      "icon_id": "25268090",
      "name": "settings-line",
      "font_class": "settings-line",
      "unicode": "e773",
      "unicode_decimal": 59251
    },
    {
      "icon_id": "25209778",
      "name": "search-2-line",
      "font_class": "search-2-line",
      "unicode": "e771",
      "unicode_decimal": 59249
    },
    {
      "icon_id": "25209730",
      "name": "down",
      "font_class": "down",
      "unicode": "e76f",
      "unicode_decimal": 59247
    },
    {
      "icon_id": "25209731",
      "name": "up",
      "font_class": "up",
      "unicode": "e770",
      "unicode_decimal": 59248
    },
    {
      "icon_id": "25209678",
      "name": "生产车间",
      "font_class": "shengchanchejian",
      "unicode": "e76e",
      "unicode_decimal": 59246
    },
    {
      "icon_id": "25151308",
      "name": "指标",
      "font_class": "dashboard-3-line",
      "unicode": "e76d",
      "unicode_decimal": 59245
    },
    {
      "icon_id": "25151071",
      "name": "funds-box-line",
      "font_class": "funds-box-line",
      "unicode": "e76c",
      "unicode_decimal": 59244
    },
    {
      "icon_id": "25150906",
      "name": "arrow-down-line",
      "font_class": "arrow-down-line",
      "unicode": "e76b",
      "unicode_decimal": 59243
    },
    {
      "icon_id": "25025556",
      "name": "user-3-fill",
      "font_class": "user-3-fill",
      "unicode": "e75b",
      "unicode_decimal": 59227
    },
    {
      "icon_id": "25025557",
      "name": "key-2-fill",
      "font_class": "key-2-fill",
      "unicode": "e75c",
      "unicode_decimal": 59228
    },
    {
      "icon_id": "25012884",
      "name": "alarm-warning",
      "font_class": "alarm-warning",
      "unicode": "e75a",
      "unicode_decimal": 59226
    },
    {
      "icon_id": "25012591",
      "name": "edit",
      "font_class": "edit",
      "unicode": "e759",
      "unicode_decimal": 59225
    },
    {
      "icon_id": "25012316",
      "name": "icon-重置密码",
      "font_class": "icon-zhongzhimima",
      "unicode": "e758",
      "unicode_decimal": 59224
    },
    {
      "icon_id": "24839554",
      "name": "icon_查看",
      "font_class": "icon_chakan",
      "unicode": "e755",
      "unicode_decimal": 59221
    },
    {
      "icon_id": "24839555",
      "name": "icon_删除",
      "font_class": "icon_shanchu",
      "unicode": "e756",
      "unicode_decimal": 59222
    },
    {
      "icon_id": "24839556",
      "name": "icon_编辑",
      "font_class": "icon_bianji",
      "unicode": "e757",
      "unicode_decimal": 59223
    },
    {
      "icon_id": "24839430",
      "name": "icon_cosle",
      "font_class": "icon_coslebeifen",
      "unicode": "e754",
      "unicode_decimal": 59220
    },
    {
      "icon_id": "24839244",
      "name": "菜单-收起",
      "font_class": "caidan-shouqi",
      "unicode": "e753",
      "unicode_decimal": 59219
    },
    {
      "icon_id": "24838319",
      "name": "icon_1生产监控备份",
      "font_class": "icon_1shengchanjiankongbeifen",
      "unicode": "e74e",
      "unicode_decimal": 59214
    },
    {
      "icon_id": "24838320",
      "name": "icon_3节能效果评估备份",
      "font_class": "icon_3jienengxiaoguopinggubeifen",
      "unicode": "e74f",
      "unicode_decimal": 59215
    },
    {
      "icon_id": "24838321",
      "name": "icon_4节能监控备份",
      "font_class": "icon_4jienengjiankongbeifen",
      "unicode": "e750",
      "unicode_decimal": 59216
    },
    {
      "icon_id": "24838322",
      "name": "icon_6系统管理备份",
      "font_class": "icon_6xitongguanlibeifen",
      "unicode": "e751",
      "unicode_decimal": 59217
    },
    {
      "icon_id": "24838323",
      "name": "icon_5大屏可视化备份",
      "font_class": "icon_5dapingkeshihuabeifen",
      "unicode": "e752",
      "unicode_decimal": 59218
    }
  ]
}
